{
  "id": "dockerapplicationmanagerdependencies",
  "optional": true,
  "title": "Dependency checks for Docker Application Manager",
  "details": "Checks that the dependencies are met on the Device, for the Docker Application Manager to function. Currently, this group is only supported for Linux based devices."
}