{
  "RecipeFormatVersion": "2020-01-25",
  "ComponentName": "com.example.mlinf",
  "ComponentVersion": "1.0.0",
  "ComponentType": "aws.greengrass.generic",
  "ComponentPublisher": "USER",
  "ComponentDependencies": {
    "aws.greengrass.DockerApplicationManager": {
      "VersionRequirement": ">=2.0.0 <2.1.0",
      "DependencyType": "HARD"
    }
  },
  "Manifests": [
    {
      "Platform": {
        "os": "all"
      },
      "Lifecycle": {
        "Run": "docker run --network=host <IMAGE_NAME>:<IMAGE_TAG> -p 8080 -m <MODEL>"
      },
      "Artifacts": [
        {
          "Uri": "docker:<IMAGE_NAME>:<IMAGE_TAG>"
        }
      ]
    }
  ],
  "Lifecycle": {}
}
