{
  "id": "IDTSampleSuitePython_1.0.1",
  "title": "SampleSuitePython",
  "details": "This test suite contains sample test cases written in Python.",
  "userDataRequired": false,
  "environmentVariables": [
    {
      "key": "LOG_FILE_PATH_FROM_SUITE",
      "value": "{{testData.logFilePath}}"
    }
  ]
}
